#!/usr/bin/env shi
incl argv unix
incl hilite lex 'error'
DEBUG := false

fun new_entry line addr file func {
	// to avoid IC misses create all entries here with the same hidden_type
	ret { line, addr, file, func }
}

fun tabler s {
	ret filter(s / ' ', lam x { ret len x > 0 })
}

fun get_line_addr s {
	t := tabler(s)
	line := parse_int(t[3], 10)
	if line > 0 {
		addr := parse_int(t[4], 16)
		ret new_entry(line, addr, nil, nil)//{ line, addr }
	}
}

fun locate p {
	//log 'locating' p
	each MAP {
		if item.addr == p {
			ret item
		}
		if item.addr > p {
			ret MAP[index-1]
		}
	}
	log 'nothing found'
	ret
}

fun parse16 x {
	a := parse_int(x, 16)
	ret a
}

fun go p {
	a := locate(p-1)
	init a {
		log 'not found'
		ret
	}
	srcline := ''
	try {
		src = load(a.file) / '\n'
		srcline = src[a.line-1]
	}
	catch {
		log 'file loading error' (error).msg
		kill
	}
	fun tab n s { while len s < n s += ' ' ret s }
	file := (a.file / '/')[-1]
	use srcline srcline = trim(srcline)
	if colorize {
		//cout ~~ '  ' tab(30 file+':'+a.line)  hilite(a.func+'()') '\n'
		// hilte goes endless loop sometimes...
		S := a.func + '()'
		S = srcline
		init S = ''
		cout ~~ '  ' tab(30 file+':'+a.line)  S '\n'
		//hilite(srcline)
	}
	else {
		cout '  at ' tab(40 file+':'+a.line)  srcline '\n'
	}
}

colorize := false
cli := load_argv(['e'])
binary_name := '/tmp/ship-prog'
number_base := 16

if cli.keys['e'] {
	binary_name = cli.keys['e'][0]
}

if cli.keys['d'] {
	number_base = 10
}

colorize = unix.isTTY()

if cli.keys['c'] colorize = true

if cli.keys['h'] or cli.keys['help'] {
	log 'Read STABS debug info generated by TinyCC'
	log '-h, --help   show this help message'
	log '-e <file>    specify binary name (default is 'binary_name')'
	log '-c           do not colorize the output'
	log '-d           decimals'
	ret 1
}
if DEBUG log cli
//if the cli.keys['-e'] binary_name := it

cmd := 'objdump --stabs '+ binary_name// +' > /var/tmp/tcc-stabs'
r := system(cmd)

if len r == 0 {
	log 'failed:' cmd
	kill
}
lines := r / '\n'
//load('/var/tmp/tcc-stabs') / '\n'
if DEBUG log 'lines loaded:' len lines

FUN := new_entry(nil, nil, nil, nil)
SLINE := new_entry(nil, nil, nil, nil)
INCL := []
MAP := []
src := ''
dir := ''
cur_func := nil
dbg_leds := {SO:0 BINCL:0 EINCL:0 FUN:0 SLINE:0}

each lines {
	if ('SO' find item) >= 0 {
		inc dbg_leds.SO
		t := tabler(item)
		if t[0] == '0' { src += t[6]; dir = t[6] }
		if t[0] == '1' src += t[6]
		if t[6] INCL = [t[6]]
	}
	if ('BINCL' find item) >= 0 {
		inc dbg_leds.BINCL
		INCL += tabler(item)[6]
	}
	if ('EINCL' find item) > 0 {
		inc dbg_leds.EINCL
		INCL = INCL[0..-2]
	}
	if ('FUN' find item) >= 0 {
		inc dbg_leds.FUN
		FUN = get_line_addr(item)
		cur_func = tabler(item)
		//are FUN
	}
	if ('SLINE' find item) >= 0 {
		inc dbg_leds.SLINE
		SLINE = get_line_addr(item)
		SLINE.addr += FUN.addr
		MAP += new_entry(SLINE.line, SLINE.addr, INCL[-1], (cur_func[6]/':')[0])
		//{ addr:SLINE.addr, line: SLINE.line, file: INCL[-1], func: (cur_func[6]/':')[0] }
	}
}
if DEBUG are dbg_leds

if len src == 0 {
	log 'SO section missing'
	kill
}
//save('MAP.shame', shame(MAP))
map_n := -1
each MAP {
	if the item.addr >= map_n map_n = it
	else {
		//are item map_n
		log 'Map is unsorted, sorting forced'
		sort_with(MAP, lam a b { ret a.addr > b.addr })
		break
	}
}
//log 'minimal:' MAP[0] 'maximum:' MAP[-1]

each MAP {
//	log item.file + ':' + item.line to_hex(item.addr)
}


if len cli.list < 1 {
	log 'address is missing'
}
else {
	each cli.list {
		addr := item
		if number_base == 16 addr = parse16(item)
		but number_base == 10 addr = parse_int(item)
		go(addr)
	}
}

//go(parse16('0x400927'))
//go(parse16('0x40096e'))
//go(parse16('0x4009a6')) // 58-59
//go(parse16('0x4009bd'))

